^C:\USERS\CRIADORO\.BABUN\CYGWIN\HOME\CRIADORO\PROGRAM_AVANZ_CRIADORO\EDK_WORKSPACE_TEXTURE_IMPLEMENTATION\SRC\CUBEEXAMPLETEXTURE2.CC
C:\USERS\CRIADORO\.BABUN\CYGWIN\HOME\CRIADORO\PROGRAM_AVANZ_CRIADORO\EDK_WORKSPACE_TEXTURE_IMPLEMENTATION\PROJECT\VS2015\EDK_WORKSPACE\DEBUG\VC140.PDB
C:\USERS\CRIADORO\.BABUN\CYGWIN\HOME\CRIADORO\PROGRAM_AVANZ_CRIADORO\EDK_WORKSPACE_TEXTURE_IMPLEMENTATION\PROJECT\VS2015\EDK_WORKSPACE\DEBUG\VC140.IDB
^C:\USERS\CRIADORO\.BABUN\CYGWIN\HOME\CRIADORO\PROGRAM_AVANZ_CRIADORO\EDK_WORKSPACE_TEXTURE_IMPLEMENTATION\SRC\CUBEEXAMPLETEXTURE2.CC|C:\USERS\CRIADORO\.BABUN\CYGWIN\HOME\CRIADORO\PROGRAM_AVANZ_CRIADORO\EDK_WORKSPACE_TEXTURE_IMPLEMENTATION\SRC\SNOW\TEXTURE.CPP
C:\USERS\CRIADORO\.BABUN\CYGWIN\HOME\CRIADORO\PROGRAM_AVANZ_CRIADORO\EDK_WORKSPACE_TEXTURE_IMPLEMENTATION\PROJECT\VS2015\EDK_WORKSPACE\DEBUG\VC140.PDB
C:\USERS\CRIADORO\.BABUN\CYGWIN\HOME\CRIADORO\PROGRAM_AVANZ_CRIADORO\EDK_WORKSPACE_TEXTURE_IMPLEMENTATION\PROJECT\VS2015\EDK_WORKSPACE\DEBUG\VC140.IDB
^C:\USERS\CRIADORO\.BABUN\CYGWIN\HOME\CRIADORO\PROGRAM_AVANZ_CRIADORO\EDK_WORKSPACE_TEXTURE_IMPLEMENTATION\SRC\SNOW\TEXTURE.CPP
C:\USERS\CRIADORO\.BABUN\CYGWIN\HOME\CRIADORO\PROGRAM_AVANZ_CRIADORO\EDK_WORKSPACE_TEXTURE_IMPLEMENTATION\PROJECT\VS2015\EDK_WORKSPACE\DEBUG\VC140.PDB
